{
  "project_info": {
    "project_number": "388518397339",
    "project_id": "my-doctor-a818b",
    "storage_bucket": "my-doctor-a818b.appspot.com"
  },
  "client": [
    {
      "client_info": {
        "mobilesdk_app_id": "1:388518397339:android:546e67a452f72491c6cd3e",
        "android_client_info": {
          "package_name": "com.kopishop"
        }
      },
      "oauth_client": [
        {
          "client_id": "388518397339-32osq7pjns18peus58v2df12ra0qlalj.apps.googleusercontent.com",
          "client_type": 1,
          "android_info": {
            "package_name": "com.kopishop",
            "certificate_hash": "5e8f16062ea3cd2c4a0d547876baa6f38cabf625"
          }
        },
        {
          "client_id": "388518397339-1m4000789lnfir0ilog41fk6hblkvob7.apps.googleusercontent.com",
          "client_type": 3
        }
      ],
      "api_key": [
        {
          "current_key": "AIzaSyArstIvxKAKE_dON3nSEAsno25g0adqFno"
        }
      ],
      "services": {
        "appinvite_service": {
          "other_platform_oauth_client": [
            {
              "client_id": "388518397339-1m4000789lnfir0ilog41fk6hblkvob7.apps.googleusercontent.com",
              "client_type": 3
            }
          ]
        }
      }
    }
  ],
  "configuration_version": "1"
}